<svg width="210" height="210" viewBox="0 0 210 210" fill="none" xmlns="http://www.w3.org/2000/svg">
<circle cx="105" cy="105" r="105" fill="#38AA90"/>
<path d="M104.5 59.5625C94.9308 59.5738 85.7568 63.3801 78.9904 70.1466C72.2239 76.913 68.4176 86.0871 68.4063 95.6562C68.3948 103.476 70.9492 111.084 75.6775 117.313C75.6775 117.313 76.6619 118.609 76.8227 118.796L104.5 151.438L132.191 118.779C132.335 118.605 133.323 117.313 133.323 117.313L133.326 117.303C138.052 111.077 140.605 103.473 140.594 95.6562C140.583 86.0871 136.776 76.913 130.01 70.1466C123.243 63.3801 114.069 59.5738 104.5 59.5625V59.5625ZM104.5 108.781C101.904 108.781 99.3666 108.011 97.2082 106.569C95.0498 105.127 93.3675 103.077 92.3741 100.679C91.3807 98.2807 91.1208 95.6417 91.6272 93.0957C92.1337 90.5497 93.3837 88.211 95.2193 86.3755C97.0548 84.5399 99.3935 83.2899 101.939 82.7834C104.485 82.277 107.124 82.5369 109.523 83.5303C111.921 84.5237 113.971 86.206 115.413 88.3644C116.855 90.5228 117.625 93.0604 117.625 95.6562C117.621 99.1359 116.236 102.472 113.776 104.932C111.316 107.393 107.98 108.777 104.5 108.781V108.781Z" fill="white"/>
</svg>
